{
  "About": {
    "about-fin": "Fin has been involved with online collaborative communities since 2007, starting as a Wikipedia administrator. They now spend their off-time researching extremist communities and educating people about online misinformation.",
    "about-jezza": "Jezza came to the Trust Café project of WikiTribune in 2019 because of frustration with advertisement-funded and argument-fueling social media. They have worked in several fields, including gardens and cow pastures. Jez lives with their cat, Cupcake, and enjoys a semi-nomadic lifestyle in a converted school bus.",
    "about-jimmy": "Jimmy Wales is the founder of Wikipedia and co-founder of Fandom. Trust Café is his pilot project to try to build a healthier (for you and for the world) social networking platform focussed on amplifying quality voices online.",
    "about-orit": "Orit is the founder of Glass Voices, Co-Founder of WikiTribune, former CEO of the Jimmy Wales Foundation & human rights activist.",
    "about-paragraph": "Trust Café was created with the goal of fighting misinformation in the social media sphere. We are a community-led and community-moderated platform dedicated to creating a space where discussions can thrive, and misinformation is quickly removed. For more on our platform's philosophy, <a href='faqs'><b>please see our FAQs</b></a>.",
    "about-simon": "Simon has been a developer for about two decades and seen many changes to the industry. He started coding when he was a nipper making text based adventure games. Since the world began it's descent into chaos ushered in by Brexit and Trump, he decided to use his powers to defeat misinformation.",
    "fin-title": "Head of Community/Developer/Co-Founder",
    "jezza-title": "Community Manager/Junior Dev",
    "jimmy-title": "Founder",
    "orit-title": "Fund Raiser",
    "simon-title": "Lead Dev/Co-Founder"
  },
  "Admin": {
    "admin-stuff": "Admin Stuff",
    "edit-about-page": "You are now editing the about page",
    "get-user-groups": "Get User Groups",
    "joined": "Joined"
  },
  "Annual": "Annual",
  "Archive": {
    "archive": "Archive",
    "archive-comment": "Archive Comment",
    "archive-post": "Archive Post",
    "are-you-sure-comment": "Are you sure you would like to archive this comment?",
    "are-you-sure-post": "Are you sure you would like to archive this post?",
    "cancel": "Cancel",
    "deleted": "[DELETED]"
  },
  "Auth": {
    "account-email-verification": "Account Email Verification",
    "checking-details": "Checking details...",
    "checking-for-bots": "Checking for bots",
    "email-confirmation-required": "Email Confirmation Required",
    "email-match": "The email and password you entered don't match",
    "human-detected": "Human Detected",
    "make-a-new-account": "Please note that you will have to make a new account to access this website. WTS 1.0 accounts will be merged onto this platform soon.",
    "newsletter": "Sign up to our newsletter",
    "please-check-your-email": "Please check your email",
    "please-choose-new-password": "Please choose a new password",
    "please-confirm-email": "Please confirm your email address to use Trust Café",
    "resend-email": "Resend email",
    "start-password-recovery": "Start Process",
    "your-name": "This will be your display name. It does not need to be your real name. For more see our <a href='https://wt.social/name-policy'>Name Policy</a>"
  },
  "BeginnersGuide": {
    "intro-paragraph": "Welcome to Trust Cafe! Below is a comprehensive guide to using our website. If you’ve found a bug, please make a post in <a href='https://wts2.wt.social/en/wt/wts2-bugs'>the Bugs branch</a>. If you would like to suggest an improvement, visit <a href='https://wts2.wt.social/en/wt/wts2-features'>the Features branch</a>.",
    "latest-announcements": "Check here for the latest announcements from the official WTS team.",
    "sections": [
      {
        "items": [
          {
            "text": "Although you can see some similarities in our design, the social aspect of Trust Cafe is a lot different than what you might be used to. The website is dedicated to sharing trustworthy content and creating substantive discussions. You won’t see a lot of minion memes or other low quality content here.<br/><br/>We also operate on a peer-to-peer moderation system. That means you are empowered to make this a great place for all. If you see spam, misinformation, or hate speech, let people know by using the trust rating system.<br/><br/>Staff can and will step in if necessary, but the community (including community administrators) are the heart of the website.",
            "title": "What makes Trust Cafe different from Facebook and Twitter?"
          },
          {
            "text": "A good quality Trust Cafe post should have accurate and up-to-date information, provide sources for any claims made, and be written in a clear, concise, and easy-to-understand manner. Additionally, the post should be respectful of other viewpoints and should not contain any offensive language or content.",
            "title": "What makes a ‘quality post’?"
          },
          {
            "text": "The trust system is a great way for users to rate other users as trustworthy when they post good quality content. It helps create an environment of accountability and encourages people to be more mindful about the content that they are posting. Additionally, it can also help identify untrustworthy people who may be intentionally posting spam or inappropriate material.",
            "title": "Which users are trustworthy?"
          },
          {
            "text": "You can edit your own posts on Trust Cafe, like on any social media website. Unlike other platforms, users can edit each other’s posts to correct mistakes, reword headlines, and flag misinformation. In this way Trust Cafe is like a wiki: everyone can help curate quality content.",
            "title": "Editing A Post"
          },
          {
            "text": "If you see a comment that shouldn’t be there, such as hate speech or advertisements, you can hide the post from view for yourself and everyone else. This is one of the ways the community helps keep Trust Cafe tidy. If a comment is hidden by mistake, it can be unhidden just as easily.<br/><br/>When a user hides or unhides a comment, the change is logged in the Recent Changes list so that everyone can see. In addition to encouraging action on bad actors with hidden comments, this transparency measure also prevents clandestine abuse of the system.",
            "title": "Hiding Comments",
            "under_construction": true
          }
        ],
        "title": "INTRODUCTION"
      },
      {
        "items": [
          {
            "text": "You’ll notice that your home feed has two tabs: ‘Your Feed’ shows you every post from people or branches you are following, and ‘For You’ shows you all the latest posts, although as the trust network develops, new accounts and potential spammers will be displayed below trusted community members.",
            "title": "About Your Feed"
          },
          {
            "text": "A ‘branch’ is a place to post content about a given topic, like subreddits or Wikipedia Projects. Trust Cafe has branches for everything from US Politics to Puzzles from Around The World.<br/><br/><a href='branches/alphabetical'>You can browse all Trust Cafe branches here.</a>",
            "title": "About Branches"
          },
          {
            "text": "Trust Cafe believes in being as transparent as possible. If you click on <a href='recentchanges'>‘Recent Changes’</a> you can see every action taken on the website. This helps keep everyone accountable and is a great way to look into how moderation works on the platform.",
            "title": "About Recent Changes"
          },
          {
            "text": "On the day-to-day level? People like you!<br/><br/>For information about our staff team, please see <a href='About'>the ‘About Us’ page.</a>",
            "title": "Who Runs This Place?"
          }
        ],
        "title": "ABOUT"
      },
      {
        "items": [
          {
            "text": "You can update your language, notification settings, and other account details in <a href='myaccount'>the ‘My Account’ page</a> at any time. If you would like to help translate the site into your language, let us know in <a href='https://discord.gg/ftyB5yzwH5'>the official Trust Cafe Discord server</a>.",
            "title": "Change Your Settings"
          },
          {
            "text": "You can update your language, notification settings, and other account details in <a href='myaccount'>the ‘My Account’ page</a> at any time. If you would like to help translate the site into your language, let us know in <a href='https://discord.gg/ftyB5yzwH5'>the official Trust Cafe Discord server</a>.",
            "title": "Talk to Another User"
          },
          {
            "text": "UNDER CONSTRUCTION",
            "title": "Invite Your Friends, Family, and Fans",
            "under_construction": true
          },
          {
            "text": "This should explain both on-platform and off-platform sharing since both are important to growth......... To share a Trust Cafe post to your followers on other social media sites, use the share button [add image below] to share directly to Facebook or Twitter, or copy the link and paste it into an email or other message.",
            "title": "Share a Post",
            "under_construction": true
          },
          {
            "text": "THIS ISN’T FINISHED - NEED TO ADD THE ABILITY TO SUBSCRIBE TO A POST........When you make a post, you’ll get a bell notification whenever someone edits it, or leaves a comment. You can also turn on email alerts for updates on <a href='myaccount'>the ‘My Account’ page</a>.",
            "title": "Keep Track of Conversations",
            "under_construction": true
          },
          {
            "text": "THIS ISN’T STARTED AND WE NEED A COMMUNITY DISCUSSION ABOUT IT",
            "title": "Use Hashtags",
            "under_construction": true
          }
        ],
        "title": "HOW TO"
      },
      {
        "items": [
          {
            "text": "Posts to Trust Cafe are collaborative by default, which allows anyone to edit your post. It sounds scary, but it really isn’t! A transparent ‘revision history’ is on the right hand side, which shows what each person wrote and when they wrote it.<br/><br/>Community members usually reserve editing for minor improvements to posts, or alerting other users when something is wrong. We strongly encourage you to follow these practices. If you wish to post a personal non-collaborative post, uncheck the ‘Make this post collaborative’ option when submitting your post.",
            "title": "Collaborative Editing"
          },
          {
            "text": "SAVING UNTIL SUBWIKIS ARE IMPORTED - THEN WE SHOULD COLLABORATE ON THIS. This section will need different links for different languages since the branches are separate.",
            "title": "Branches About Trust Cafe",
            "under_construction": true
          },
          {
            "text": "UNDER CONSTRUCTION: add links to Self Promotion Policy, NSFW Policy, Names and Pseudonyms Policy",
            "title": "Terms of Service",
            "under_construction": true
          }
        ],
        "title": "MORE DETAILS"
      }
    ],
    "title": "A Beginner's Guide to Trust Cafe",
    "visual-guide": "Visual learner? Check out the Visual Guide to WTS here."
  },
  "Block": {
    "alert-text-blocking-admin-not-allowed": "Blocking an admin is prevented to avoid abuse of the blocking system. If you have a problem with an admin, please contact us.",
    "alert-title-blocking-admin-not-allowed": "Sorry, we can't let you do that",
    "btn-block-this-user": "Block this user",
    "btn-show-anyway": "Show me anyway",
    "btn-unblock": "Unblock",
    "btn-unblock-this-user": "Unblock this user",
    "click-manage-blocks": "Click here to manage your blocks",
    "heading-reason": "Your reason for blocking this user",
    "no-blocked-users": "You have not blocked any users",
    "reason-textarea-label": "Enter your reason for blocking this user (optional)",
    "resaon-explainer": "Blocking this user will hide their content from you.  You can enter an optional reason which will remain a private to you and our staff.",
    "this-has-been-blocked-by": "You’re unable to view this because this person limits who can view their content.",
    "this-user-has-blocked-you": "This user has blocked you",
    "title-manage-blocks": "Review or unblock users you have blocked",
    "unblock-explainer": "You are about to unblock this user",
    "you-have-blocked-this-content": "This has been blocked by you"
  },
  "Branch": {
    "describe-branch": "Describe this branch",
    "member": "no members | one member | {n} members",
    "post": "no posts | one post | {n} posts"
  },
  "Contact": {
    "contact-us": "Contact Us",
    "contact-us-paragraph": "Got a question, comment, or suggestion? Let us know using the form below, or email us at info @ wikitribune dot com.",
    "discord": "Alternatively, chat with us on Discord",
    "email": "Your Email Address",
    "message": "Message",
    "name": "Name",
    "send": "Send",
    "subject": "Subject",
    "success": "Thank you for contacting us"
  },
  "EditBox": {
    "identifier": "identifier"
  },
  "Errors": {
    "email-confirmation-error": "There was an error confirming your address",
    "no-identifier": "No identifier!",
    "no-settings": "No settings!"
  },
  "FAQS": {
    "is-translated": "",
    "questions": [
      {
        "answer": "Trust Café began as an attempt to create user-driven news content. To that end, we named ourselves WikiTribune (as in <a href='https://dictionary.cambridge.org/dictionary/english/tribune'>newspaper</a>, not the Roman forum) at that time. Although there was interest in the idea, there were too many barriers to make a flourishing platform. In light of this, we pivoted to creating value in the social media space. WikiTribune was shortened to WT, and the website WT.Social was born.\nAs time went on, our focus shifted to creating a social network where trust and community come first — a place where honesty and authenticity are valued above all else. We hope to promote content based on trustworthiness, rather than engagement or addiction. The warm and inviting atmosphere of a physical café is the inspiration behind Trust Café, a place where you can connect with like-minded individuals in an honest and friendly environment.",
        "title": "Why Is It Called Trust Café?"
      },
      {
        "answer": "A user’s trust level influences how and where their content is visible to others. It also affects how much weight their votes carry, and can confer some additional permissions at higher levels. <a href='trust'>Read more about our Trust metric here.</a>",
        "title": "What Is Trust?"
      },
      {
        "answer": "Content here is divided by topic into Branches, which are like subreddits or Wikipedia Projects. Trust Café has branches for everything from US Politics to Puzzles from Around The World. When you reach Silver rank, you will be able to create branches. <br/><br/><a href='branches/alphabetical'>You can browse all Trust Cafe branches here.</a> If you are not yet able to create branches, and can't find a branch for your favourite subject, <a href='en/wt/request-a-branch'>visit the \"Request A Branch\" branch.",
        "title": "What Are Branches?"
      },
      {
        "answer": "No. Emphatically not. Trust Café's mission is to provide a non-toxic social media platform, which cannot happen in an environment where anything goes. We take a proactive stance against hate speech, harassment, and misinformation.",
        "title": "Is Trust Café a 'Free Speech Platform'?"
      },
      {
        "answer": "No. Our guidelines are politically agnostic. The political leanings of users are not a consideration when making moderation decisions. What we want to encourage is <strong>reasoned-discourse</strong> among people who may have many disagreements.  Any community member who can refrain from hate speech, harassment, and misinformation is welcome. Having said that, it should (but unfortunately does not) go without saying that Nazis and other genocidally-inclined folks are not welcome here.",
        "title": "Is Trust Café A Left/Right-Wing Platform?"
      },
      {
        "answer": "Exactly what it sounds like. Although staff members can and will step in to remove users violating our guidelines, and to shield users from the worst excesses of the internet, the everyday moderation of the platform can and should be handled by our users.<br/><br/>Why? Because top-down moderation (or worse, AI-driven moderation) does not work. Facebook moderation has created an entire <a href='https://www.irishtimes.com/business/technology/life-as-a-facebook-moderator-people-are-awful-this-is-what-my-job-has-taught-me-1.4184711'>class of employees with PTSD</a> with the inability to act when they see patently harmful content.<br/><br/>Algorithmic moderation often creates policies which reinforce existing social biases and can <a href='https://www.washingtonpost.com/technology/2021/11/21/facebook-algorithm-biased-race/'>promote racism</a>. Social media companies reliant solely on ad-driven revenue <a href='https://www.forbes.com/sites/petersuciu/2021/08/02/spotting-misinformation-on-social-media-is-increasingly-challenging'>allow misinformation to spread</a> for the sake of engagement and clicks. And it's not scalable. AI <a href='https://www.digitalinformationworld.com/2021/02/ai-content-moderation-systems-are.html'>cannot currently keep up</a> with the ever-changing nature of human behavior, and even tech giants cannot afford to hire enough human moderators to police their platforms.<br/><br/>Trust Café allows users to edit posts, and hide comments. They can directly combat spam, request and start collaborative fact checks, and otherwise shape the platform into what they want it to be. It's a radical idea, but we firmly believe it's the future.",
        "title": "What's Peer-to-Peer Moderation?"
      },
      {
        "answer": "Although this feature is still currently in development, we will provide a link on sign-up allowing you to invite people to follow you on Trust Café. Please check back here for updates. In the meantime, you can send people a link to your profile page, which looks like this: <code>https://wts2.wt.social/en/user/YOUR-USERNAME-HERE</code>",
        "title": "How Can I Bring My Followers To Trust Café?"
      },
      {
        "answer": "Users like you. We have not taken VC money, nor do we allow advertisers on our platform. We rely on the generosity of our community to keep the lights on. If you would like to help, please consider making a contribution <a href='https://contribute.wt.social/'>here</a>.",
        "title": "Who Funds Trust Café?"
      },
      {
        "answer": "You sure can! So long as you follow our Self-Promotion Guidelines as set out <a href='https://wt.social/self-promotion'>here</a>.",
        "title": "Can I Promote My Blog/Podcast/Business Here?"
      },
      {
        "answer": "Yes we do! <a href='https://trustcafe.readme.io/reference/intro/getting-started'>Read the documentation here.</a>",
        "title": "Do you have an API (Application Programming Interface)?"
      },
      {
        "answer": "Although this is not implemented yet, we are fine with federation, and welcome merge requests from enthusiastic volunteers who wish to connect Trust Café to the Fediverse using the ActivityPub protocol.",
        "title": "Will the site support federation via ActivityPub?"
      },
      {
        "answer": "Not at the present time, as we haven't seen any persuasive use case for the blockchain for our actual needs. We are open to financial support in pretty much any currency, including cryptocurrency, though!",
        "title": "Are You Open To Being On The Blockchain?"
      }
    ]
  },
  "Following": {
    "following-nobody": "You're not following anybody",
    "users-following": "People You Follow"
  },
  "General": {
    "404": "This page was probably assimilated by some pesky Borg and is no longer 'here'",
    "FAQS": "FAQS",
    "about": "About",
    "about-header": "Welcome to Trust Café",
    "about-paragraph": "I may be listening to a certain soundtrack right now....\n\nWho knows! ?",
    "all": "All",
    "all-branches": "All Branches",
    "all-posts": "All Posts",
    "are-you-sure-delete-key-pair": "Are you sure you want to delete this key pair?",
    "back": "Back",
    "branch-for-new-post": "Branch for new post",
    "branches": "Branches",
    "cancel": "Cancel",
    "cant-log-in-right-now": "Sorry, we can't log you in right now",
    "changes": "Changes",
    "choose-scopes": "Choose which scopes you want to grant your client",
    "choose-your-language": "Choose Your Language",
    "close": "Close",
    "comment": "Comment",
    "comment-fetch-error": "Whoops! Nothing to fetch comments on!",
    "comment-placeholder": "Leave a comment",
    "comment-text": "Comment Text",
    "commented-on-a-post": "Commented on a post",
    "confirm-password": "Confirm password",
    "contact": "Contact Us",
    "continue-reading": "Continue reading",
    "create": "Create",
    "create-a-branch": "Create A Branch",
    "create-new-client-credentials-key-pair": "Create new client credentials key pair",
    "created-a": " created a ",
    "created-new-branch": "created a new branch",
    "created-new-comment": "created a new comment",
    "created-new-post": "created a new post",
    "created-new-userprofile": "created new user profile",
    "created-new-vote": "created new vote",
    "dark-mode": "Dark Mode",
    "describe-your-new-branch": "Describe Your New Branch",
    "discover": "Discover",
    "edit": "Edit",
    "edit-attached-link": "Edit attached link",
    "edit-copy": "Edit Copy",
    "edit-this-post": "Edit this post",
    "editing": "Editing",
    "email-address": "Email address",
    "error-loading-link": "There was an error loading this link",
    "first-name": "First name",
    "follow": "follow",
    "followed-you": "followed you",
    "following": "Following",
    "for-you": "For you",
    "forgot-password": "Forgot Password",
    "forgotten-password": "Forgotten Password",
    "guest": "Guest",
    "home": "Home",
    "is-collaborative": "collaborative post",
    "item-cannot-be-followed": "Item cannot be followed",
    "last-name": "Last name",
    "load-more": "Load more",
    "loading-full-data": "Loading full link data",
    "loading-user": "Loading User",
    "login": "Login",
    "login-or-register": "Login or Register",
    "logout": "Logout",
    "make-new-branch": "Make New Branch",
    "manage-api-access": "Manage API Access",
    "many-comments": "comments",
    "monthly": "Monthly",
    "more-info": "More Info",
    "must-be-online-to-continue": "You must be online to continue",
    "my-account": "My Account",
    "my-payments": "My payments",
    "new-branch-name": "New branch name?",
    "new-post-button": "Create New Post",
    "next": "Next",
    "no-user": "NO USER",
    "none": "None",
    "not-collaborative": "personal post",
    "on": "on",
    "one-comment": "comment",
    "one-moment": "One moment please",
    "one-off": "One off",
    "oops-looks-like-youve-entered-the-wrong-login": "Oops! Looks like you've entered the wrong login",
    "pages": "Pages",
    "password": "Password",
    "password-input-must-match": "Password input must match",
    "password-recovery": "Password Recovery",
    "pay-with-debit/credit-card": "Pay with debit/credit card",
    "pay-with-paypal": "Pay with Paypal",
    "please-enjoy-your-stay": "Please enjoy your stay",
    "post-placeholder": "What's on your mind?",
    "post-text": "Post Text",
    "posted-in": "posted in",
    "posted-in-their-branch": "posted in their branch",
    "posted-in-their-branch-at": "posted in their branch at",
    "posted-to": "posted to",
    "posts": "Posts",
    "posts-by-id": "Posts by ID (test)",
    "profile": "profile",
    "profile-url": "Profile URL",
    "random-box": "Random Box",
    "read-all-posts": "You have read all the posts here!",
    "recent-changes": "Recent Changes",
    "recommended-branches": "Recommended Branches",
    "refresh": "Refresh",
    "register": "Register",
    "remove": "Remove",
    "replied": "replied",
    "replied-at": "replied at",
    "reply": "Reply",
    "required": "Required",
    "restart": "Restart",
    "retry": "Retry",
    "revisions": "Revisions",
    "save": "Save",
    "settings": "Settings",
    "subscribe": "Subscribe",
    "take-note": "Take note of the following details. If you lose them you'll need to create a new secret.",
    "testing": "I am testing",
    "there-are-no-changes-to-show": "There are no changes to show",
    "there-arent-any-followers-followed-by-users": "There are no users followed by this user",
    "there-arent-any-followers-following-subwikis": "There are no branches followed by this user",
    "there-arent-any-followers-following-users": "There are no users following this user",
    "there-arent-any-posts-here": "There aren't any posts here",
    "there-is-a-problem-with-your-account": "There is a problem with your account",
    "there-was-an-error": "There was an error",
    "this-comment-has-been-archived": "This comment has been archived",
    "trust": "Trust",
    "unfollow": "unfollow",
    "updated-a-branch": "updated a branch",
    "updated-a-comment": "updated a comment",
    "updated-a-post": "updated a post",
    "updated-a-userprofile": "updated a user profile",
    "updated-your": " updated your ",
    "url-is-available": "This URL is available",
    "url-is-taken": "This URL is taken",
    "user-profile": "User Profile",
    "users": "Users",
    "visit-branch": "Visit Branch",
    "welcome": "Welcome",
    "welcome-to-wts2": "Welcome to WTS2",
    "yearly": "Yearly",
    "you-have-been-disconnected": "You have been disconnected from the internet",
    "you-have-max-clients": "You have the maximum number of clients",
    "you-have-no-api-clients": "You have no API clients",
    "you-need-to-be-online": "You need to be online to use Wikitribune Social",
    "your-client-ids": "Your Client ID's",
    "your-conection-has-been-restored": "Your connection has been restored",
    "your-email-is-not-verified-notice": "Your email is not verified so some features are disabled. Please check your email for a verification link.",
    "your-feed": "Your Feed",
    "your-new-creds": "Your new API Client credentials"
  },
  "Monthly": "Monthly",
  "MyBranches": {
    "browse-branches": "Browse Branches",
    "my-branches": "My Branches",
    "not-following-branches": "You are not currently following any branches."
  },
  "Notifications": {
    "action_article_updated": "updated your post",
    "action_comment_reply": "replied to you",
    "action_profile_post": "posted on your profile",
    "action_rank_up": "You were promoted",
    "action_trust_created": "rated you",
    "article-updates": "Article Updates",
    "new-comment": "New Comment",
    "new-comment-responding-to something-I-have-done": "When someone responds to me",
    "new-followers": "New Followers",
    "new-messages": "New Messages",
    "notification-preferences": "Notification Preferences",
    "rank-down": "Rank Down",
    "rank-up": "Rank Up",
    "someone-trusts-me": "When someone new trusts me",
    "someone-trusts-me-more": "When someone increases their trust rating of me",
    "trust-created": "New trust",
    "trust-increased": "Trust Increased",
    "when-a-user-follows-me": "When a user follows me",
    "when-my-rank-decreases": "When I am demoted a rank",
    "when-my-rank-increases": "When I am promoted a rank",
    "when-someone-posts-to-me-directly": "When someone posts to me directly",
    "when-something-i-have-posted-or-edited-is-edited": "When something I have posted or edited is edited further"
  },
  "Password": {
    "change-password": "Change password",
    "forgotten-password": "Forgotten Password",
    "login-now": "Login now",
    "minimum-characters": "min 8 characters",
    "password-recovery": "Password Recovery",
    "password-reset-sentence-part-1": "Please be sure to follow the full link from your email. If you continue to have issues please",
    "password-reset-sentence-part-2": "or try",
    "password-reset-sentence-part-3": "resetting your password again",
    "there-was-a-problem-validating-the-reset-token": "There was a problem validating the reset token.",
    "your-password-could-not-be-changed-at-this-time": "Your password could not be changed at this time.",
    "your-password-has-been-changed": "Your password has been changed"
  },
  "Pay with Paypal": "Pay with Paypal",
  "Pay with debit/credit card": "Pay with debit/credit card",
  "PayPal": {
    "new-paypal-contribution": "New PayPal Contribution",
    "paypal-thank-you": "Thank you so much!"
  },
  "Payment": {
    "click-here": "click here",
    "contributions": "Contributions",
    "currency": "Currency",
    "error-fetching-schedules": "There was an error fetching your payment schedules",
    "fetching-schedules": "Fetching payment schedules",
    "go-back-to-wt-social": "Go back to Trust Café",
    "hint-receipt": "This just for the receipt",
    "if-you-would-like-to-make-an-account": "If you would like to make an account",
    "payment-amount": "Amount",
    "payment-are-you-sure": "Are you sure you want to cancel this subscription?",
    "payment-cancel-confirm": "Really cancel?",
    "payment-cancelled": "CANCELLED",
    "payment-cancelling": "Cancelling",
    "payment-continue": "Continue",
    "payment-contributions": "Contributions",
    "payment-created": "Created",
    "payment-custom": "Other",
    "payment-custom-amount": "Other Amount",
    "payment-form-choose-your-plan": "Choose your plan",
    "payment-form-new-contribution": "New Contribution",
    "payment-form-next-payment": "Next: Payment",
    "payment-form-payment": "Payment",
    "payment-form-thank-you": "Thank you for your contribution.",
    "payment-provider": "Provider",
    "payment-status": "Status",
    "payment-subscription": "Subscription",
    "payment-subscriptions": "Subscriptions",
    "payment-term": "Term",
    "support": "Support Trust Cafe",
    "user-amount-currency": "Amount/Currency",
    "user-fetch-payment-error": "There was an error fetching your payments.",
    "user-payment-provider": "Provider",
    "your-contribution-wont-go-to-waste": "Your contribution wont go to waste!",
    "your-email-address": "your email address"
  },
  "Post": {
    "a-branch": "A Branch",
    "branch-search": "Start typing to search",
    "collaborative": "Make this post collaborative",
    "do-you-want-other-users-to-be-able-to-edit-this-post": "Do you want other users to be able to edit this post?",
    "my-profile": "My Profile",
    "post": "Post",
    "post-actions": "Post Actions",
    "to-branch": "Post to Branch",
    "where": "Where would you like to post to?"
  },
  "PostRestrictions": {
    "text": "On Trust Café, users can block other users. When you see that content has been restricted from view, it might be due to another user blocking you from viewing their profile and associated posts and comments.",
    "title": "About Post Restrictions"
  },
  "Profile": {
    "continue-editing": "Continue Editing",
    "discard-changes": "Discard Changes",
    "drag-your-image-here": "Drag Your\nImage Here",
    "edit-my-profile": "Edit My Profile",
    "followers": "Followers",
    "leave-a-message": "Leave a message on My Branch",
    "unsaved-changes": "You have unsaved changes, are you sure you want to discard them?",
    "uploading-cover-picture": "Uploading cover picture",
    "uploading-profile-picture": "Uploading profile picture",
    "your-biography": "Your biography"
  },
  "Recommended": {
    "for-fun": "For Fun",
    "serious-stuff": "Serious Stuff",
    "technology": "Technology",
    "to-help-build": "To Help Build Trust Cafe"
  },
  "RevisionList": {
    "by": "by",
    "confirm-revert": "Are you sure you want to revert to this revision?",
    "revert-to": "Revert to",
    "revision": "revision",
    "revisions": "revisions",
    "there-are": "There are",
    "there-is": "There is"
  },
  "Roadmap": {
    "statuses": {
      "awaiting": "Awaiting",
      "complete": "Complete",
      "in-progress": "In Progress",
      "ongoing": "Ongoing",
      "paused": "Paused",
      "testing": "Testing"
    },
    "timeline": [
      {
        "desc": "The first step to Jimmy's new vision is allowing users to rate each other.",
        "goal": "Trust Rating"
      },
      {
        "desc": "Typically used as part of blocking/account deletion",
        "goal": "Mass archiving of a user's stuff"
      },
      {
        "desc": "So we can all discuss how it's being used",
        "goal": "Let everyone see who trusts someone and how much"
      },
      {
        "desc": "Allow users to express displeasure with someone",
        "goal": "Change trust rating bar so it is -20% to +100%"
      },
      {
        "desc": "So we can all discuss how it's being user",
        "goal": "Let everyone see who is trusted by a user"
      },
      {
        "desc": "Simple table or tables to show the top users",
        "goal": "Let everyone see who is highly ranked on the site"
      },
      {
        "desc": "Implement first extremely basic algorithm to sort discover tab by time AND quality",
        "goal": "Trust Mechanism: Cause and effect"
      },
      {
        "desc": "So interesting new users (based on trust) we identify can get big followings quickly",
        "goal": "People suggestions in Onboarding"
      },
      {
        "desc": "...",
        "goal": "Nuke a post and all comments entirely"
      },
      {
        "desc": "So we can look into it",
        "goal": "See who people are following and who follows them"
      },
      {
        "desc": "Bell notify me when someone comments on my post or my comment or edits those",
        "goal": "Bell Comment notifications"
      },
      {
        "desc": "Remove bell notificaiton when someone I follow posts",
        "goal": "Declutter notification"
      },
      {
        "desc": "Email notifications",
        "goal": "Have email notifications"
      },
      {
        "desc": "The standard sort of emails but tells them what they need to do for promotion",
        "goal": "24 and 72 hour new user emails"
      },
      {
        "desc": "Deleting and merging branches are tools we will need",
        "goal": "Branch Moderation"
      },
      {
        "desc": "A place for people to discuss and debate any issues with the content",
        "goal": "Moderation Center"
      },
      {
        "desc": "To help people get stuck in we will need this helpful guide",
        "goal": "Beginners Guide"
      },
      {
        "desc": "This will be an exciting day but there are some things we need to do first.",
        "goal": "Open source WTS2"
      },
      {
        "desc": "A feature we have on WTS1 which will help spread the word",
        "goal": "'Follow me' links"
      },
      {
        "desc": "One of the most requested features",
        "goal": "Ability to follow a post"
      },
      {
        "desc": "Before we can transition to WTS2 this will need doing",
        "goal": "Newsletter Preferences"
      },
      {
        "desc": "A staple feature from WTS1 that is still missing from WTS2",
        "goal": "Pinned posts"
      },
      {
        "desc": "A staple feature from WTS1 that is still missing from WTS2",
        "goal": "Re-posting"
      },
      {
        "desc": "A staple feature from WTS1 that is still missing from WTS2",
        "goal": "User to user blocking"
      },
      {
        "desc": "A staple feature from WTS1 that is still missing from WTS2",
        "goal": "Ability to disable collaborative editing"
      },
      {
        "desc": "At this point we can switch over to WTS2 permanently",
        "goal": "Launch MVP"
      },
      {
        "desc": "ie- Showing times in your timezone and local format",
        "goal": "Regional personalisations"
      },
      {
        "desc": "We have been wanting to view posts in various languages for a long time now",
        "goal": "Post/comment/recent changes translation"
      },
      {
        "desc": "The search algorithm for WTS1 is awful and we want to make sure its replacement is actually usable",
        "goal": "Searching"
      },
      {
        "desc": "Posting videos to social media websites is commonplace and should be something we support",
        "goal": "Video uploads"
      },
      {
        "desc": "With this we will be able to start work on a mobile app or allow others to have a go.",
        "goal": "OAuth Authorization Code Flow with PKCE"
      }
    ],
    "title": "Roadmap of Features"
  },
  "Sidebar": {
    "people-i-follow": "People I Follow",
    "people-i-trust": "People I Trust",
    "people-who-follow-me": "People Who Follow Me",
    "people-who-trust-me": "People Who Trust Me",
    "who-i-follow": "Who I Follow",
    "who-i-trust": "Who I Trust"
  },
  "Single": "Single",
  "SocialMedia": {
    "first-line": "I need your help.",
    "header": "Dear Supporters",
    "is-translated": "",
    "paragraph-1": "All the problems in the world that I've set out to try to solve with WikiTribune Social are as bad as ever.  We're all seeing the possibility that Elon Musk will buy twitter and turn it into a radical free speech troll zone.  He's notorious himself for bad behavior on twitter - he definitely won't make twitter less toxic.",
    "paragraph-2": "He's promised to allow Donald Trump back on the platform in the name of 'free speech', but let's be clear what he really wants: Trump kept twitter on the front page of every newspaper in the world for half a decade and it's very profitable for them to bring him back, no matter the cost.",
    "paragraph-3": "WikiTribune has a different model.  A strange model, to be sure, but it's one that I believe in. We don't want our platform to grow by focussing on having as many pageviews as possible by maximizing addiction and outrage. We want to build something that people like you care enough about to support voluntarily, financially.  It's a 'pay if you want' model.  I've joked many times - it may not be a great business model to give things away and hope people will voluntarily support them - but this is how I've built my career so far!",
    "paragraph-4": "There's no simple way to avoid saying it.  I've chosen not to raise venture capital money because I want to maintain full creative control to build the vision that I have in mind.  Over the past two years, I've been personally the major funder of the project - but it's straining my personal resources.",
    "paragraph-5": "Over the past several months, we've gone back to the codebase and completely re-architected it from scratch pulling from everything that we've learned so far.  We've got a great small community and the new software will have new ways to support and reward people for making quality posts (instead of how all other social networks reward people for making viral addictive fluff).  Finishing this redesign will have a huge impact.  I'm excited about it!",
    "paragraph-6": "But to finish, I need your support.  I have to pay for the development work to finish the new version of the site, and I need to do some PR and marketing to get the word out.  I need to really start pushing this forward as a relaunch. If each of you can afford to give even a little, I think we have a real shot at making something revolutionary and new.  We won't know unless we keep trying.",
    "paragraph-7": "This is our chance to break the back of toxic social media by offering a better alternative. With Musk's impending Twitter purchase, and the US midterms approaching, time is short to create a space for healthier discourse.",
    "second-header": "We are severely short on funds",
    "sign-off": "Jimmy Wales"
  },
  "Stripe": {
    "amount": "Amount",
    "cancel": "Cancel",
    "closed": "Closed",
    "date": "Date",
    "description": "Description",
    "download": "Download",
    "due": "Due",
    "fetch-invoice-error": "Oops - There was an error fetching your invoice details",
    "fetch-payment-error": "Oops - There was an error fetching your payment details",
    "fetch-subscriptions-error": "Oops - There was an error fetching your subscriptions",
    "fetching-invoices": "Fetching invoices",
    "fetching-payments": "Fetching payments",
    "fetching-subscriptions": "Fetching subscriptions",
    "form-load-error": "There was an error displaying the payment form:",
    "invoice": "Invoice",
    "no-subscriptions": "You have no active subscriptions.",
    "paid": "Paid",
    "pay-now": "Pay now",
    "payment": "Payment",
    "pending": "Pending",
    "status": "Status",
    "thank-you": "Payment successful. Thank you!"
  },
  "Support": {
    "Elon-6-10-22": {
      "is-translated": "",
      "paragraph-1": "You don't have to pay - but here's why I am asking you to do it!",
      "paragraph-2": "It's only a matter of time before Elon Musk follows through on his threat to reinstate Donald Trump and allow as much abuse and disinformation as legally possible.",
      "paragraph-3": "If you think that's a sad future for the world, please help me by setting up a small monthly or annual donation - and by helping to spread the word.  We need to improve the software and I want to do it without pressure from investors to accept ads and algorithms aimed at addiction."
    },
    "bullet-point-1": "The fight against democracy-destroying social media toxicity",
    "bullet-point-2": "A thoughtful and collaborative social media platform",
    "bullet-point-3": "A site driven by quality content, not outrage",
    "bullet-point-4": "Thoughtful design, and a step away from dopamine-driven social addiction",
    "list-preface": "By supporting us, you're supporting:",
    "list-suffix": "Thank you for whatever you can spare to help with this effort.\n\nJimmy Wales",
    "no-thank-you": "No thank you",
    "paragraph-1": "Thank you so much for choosing to financially contribute to the future of Trust Café. \nSupport from people like you is essential as we strive to improve our service and bring\nabout a healthier internet landscape.",
    "paragraph-2": "With your support, we will be able to invest more in development and launch our new\nwebsite as soon as possible, and spread the word about our platform.",
    "patron-link": "Find out more today",
    "patron-link-preamble": "If you would like to support us at a higher level, you can join us as a Patron."
  },
  "There are no changes to show": "There are no changes to show",
  "Time": {
    "ago": "{time} ago",
    "day": "0 days | 1 day | {n} days",
    "fetched-in-time-from-place": "Fetched in {time} seconds from {source}",
    "hour": "0 hours | 1 hour | {n} hours",
    "minute": "0 minutes | 1 minute | {n} minutes",
    "month": "0 months | 1 month | {n} months",
    "second": "0 seconds | 1 second | {n} seconds",
    "year": "0 years | 1 year | {n} years"
  },
  "Trust": {
    "0": "I don't know this user at all",
    "1": "Hmm",
    "2": "Maybe",
    "3": "Okay",
    "4": "Great!",
    "5": "I would always trust this user!",
    "no-users-have-rated-user": "No users have rated {user}",
    "people-i-trust": "People I trust",
    "people-who-trust-me": "People who trust me",
    "rated-by-this-user": "Rated by this user",
    "ratings-of-this-user": "Ratings of this user",
    "set-trust-level": "Set your trust level for this user",
    "user-has-not-rated-any-users": "{user} has not rated any users",
    "user-rated-user2-x": "rated {user2} <strong>{trustLevel}%</strong>",
    "user-was-rated-x-by-user2": "was rated <strong>{trustLevel}%</strong> by {user2}",
    "users-rated-by": "Users rated by",
    "users-who-rated": "Users who rated",
    "you": "This is you",
    "you-rated": "You rated this user:"
  },
  "TrustLevels": {
    "intro": "<b>Note: This is a draft document of ideas - we are seeking feedback and clarifying questions!</b><br/><br/>At Trust Cafe, trusted content is king. A user’s trust level influences how and where their content is visible to others. It also affects how much weight their votes carry, and can confer some additional permissions at higher levels. When a user is promoted (say from Bronze to Silver) their votes will retroactively count for more, thus automatically moving up the people beneath them.<br/><br/>Below is a quick (but not fully comprehensive) overview of each level of trust.",
    "levels": [
      {
        "description": "This is for new users and helps ensure that spammers or other bad actors don’t enter the wider trust ecosystem. After a brief period of time or sufficient constructive contributions, a user will be promoted from this rank.",
        "name": "Newbie/Guest",
        "unlocked": "None",
        "weight": "0"
      },
      {
        "description": "Users have shown they are not malicious actors and have now moved one level up to where they can enter the trust ecosystem.",
        "name": "Citizen",
        "unlocked": "Other users can vote to move you up the trust system",
        "weight": "0"
      },
      {
        "description": "Users have been voted trustworthy by enough members of the community that they are now able to give out trust points. This level is also the default for people who have joined the Trust Cafe membership club(?).",
        "name": "Bronze",
        "unlocked": "The ability to grant trust points to another user",
        "weight": "1"
      },
      {
        "description": "Users have been active or prominent enough on the website to gain a good level of trust. This is where we would expect the average active community member to be.",
        "name": "Silver",
        "unlocked": "The ability to create branches",
        "weight": "2"
      },
      {
        "description": "To reach this level, a user will have had to accrue 180 trust points. Users at gold level will have some markings on their account to delineate them from lower trust levels.",
        "name": "Gold",
        "unlocked": "Community administration tools",
        "weight": "4"
      },
      {
        "description": "A user will have accrued 1620 trust points, which we do not expect anyone to reach for quite some time. This is exclusively for power users or exceptionally trustworthy members of the community.",
        "name": "Platinum",
        "unlocked": "Zoom party (yes, really)",
        "weight": "8"
      },
      {
        "description": "See platinum. Just…moreso",
        "name": "Diamond",
        "unlocked": "The ability to instantly promote accounts to Bronze level",
        "weight": "16"
      },
      {
        "description": "Like platinum just (literally) exponentially moreso.",
        "name": "Double Diamond",
        "unlocked": "The ability to instantly promote accounts to Silver level",
        "weight": "32"
      },
      {
        "description": "Jimmy. It’s just Jimmy.",
        "name": "Grand Poobah",
        "unlocked": "The ability to be Jimmy. If you unlock this, I think it officially qualifies as identity theft.",
        "weight": "64"
      }
    ],
    "title": "Trust Cafe Ranking System",
    "unlocked": "Unlocked",
    "vote_weight": "Vote Weight"
  },
  "UserDetails": {
    "apologies": "We are working hard to bring people the ability to update your name and slug. In the meantime, you will only be able to change your name/slug by deleting your account and starting over. We apologise for the inconvenience.",
    "edit-my-account-details": "Edit My Account Details",
    "new-email": "New Email Address",
    "new-email-hint": "Enter your new email address",
    "update-account-header": "Update Your Account Details",
    "update-email": "Update Email",
    "update-email-form-button": "Update your email address"
  },
  "Userprofile": {
    "everything": "Everything",
    "my-branch": "My Branch",
    "posts": "Posts"
  },
  "Welcome": {
    "beginners-guide": "Click here for an in-depth Beginner's Guide to WTS",
    "branches": "Branches to follow:",
    "choose-theme": "Choose your theme",
    "click-to-select-pic": "Click to Select A Profile Picture",
    "dive-in": "Dive In",
    "finish": "Finish onboarding",
    "get-you-started": "Thanks for signing up for WikiTribune Social 2.0. Here's a few things to get you started:",
    "profile-picture": "Choose a profile picture!",
    "skip-onboarding": "Skip Onboarding"
  },
  "_COMMENT": "THESE ARE ALL HERE INSTEAD OF IN A SECTION BECAUSE WE NEED TO INTERPRET THE STRINGS IN RECENT CHANGES - RECENT CHANGES DESPERATELY NEEDS REFACTORING BUT UNTIL SUCH A POINT AS WE'VE DONE THAT THESE HAVE TO LIVE OUTSIDE OF A SECTION",
  "archived a post": "archived a post",
  "branchCount": "Branches created",
  "commentCount": "Number of comments",
  "created new branch": "created a new branch",
  "created new comment": "created a new comment",
  "created new post": "created a new post",
  "created new userprofile": "created new user profile",
  "created new vote": "created new vote",
  "language": "English",
  "okay": "Okay",
  "postCount": "Number of posts",
  "profileAge": "Profile age",
  "testing": "I am testing",
  "totalActions": "Total actions",
  "totalFollowers": "Total Followers",
  "totalProfilePosts": "Total Profile Posts",
  "updated a branch": "updated a branch",
  "updated a comment": "updated a comment",
  "updated a post": "updated a post",
  "updated a userprofile": "updated a user profile"
}