{
  "About": {
    "about-fin": "Fin está envolvido com comunidades colaborativas online desde 2007, começando como um administrador da Wikipédia. Elu agora dedica seu tempo livre a pesquisar comunidades extremistas e educando pessoas sobre desinformação online.",
    "about-jezza": "Jezza veio para o projeto da WT em 2019 por causa de frustração com mídias sociais financiadas por publicidade e alimentadas (orientadas) por argumentos. Elu tem trabalhado em várias áreas, incluindo jardinagem e pastoreio de vacas. Jez vive com seu gata e muitas plantas.",
    "about-jimmy": "Jimmy Wales é o fundador da Wikipedia e co-fundador da Fandom. WT.Social é um projeto piloto para tentar construir uma plataforma de rede social mais saudável (Para você e todo o mundo) focada em amplificar vozes de qualidade online",
    "about-orit": "Orit é a fundadora do Glass Voices Co-fundadora da Wikitribune, Ex-CEO da Fundação Jimmy Wales & Ativista de direitos humanos",
    "about-paragraph": "A WTS foi criada com o objetivo de combater a  desinformação na esfera das redes sociais. Somos uma plataforma de comunidades lideradas e moderadas dedicada a criar um espaço onde discussões possam florescer e a desinformação seja rapidamente removida. Para saber mais sobre a filosofia de nossa plataforma, Por favor veja nossos FAQs",
    "about-simon": "Simon foi um desenvolvedor por duas décadas e viu muitas mudanças na indústria. Ele começou a programar quando era jovem fazendo jogos de aventura baseados em texto. Desde que o mundo começou a cair no caos introduzido pelo Brexit e Trump, ele decidiu usar seus poderes para derrotar a desinformação.",
    "fin-title": "Lider de communidade/ Dev. Junior/ Co-Fundadora",
    "jezza-title": "Gestor de comunidade",
    "jimmy-title": "Fundador",
    "orit-title": "Arrecadador de fundos",
    "simon-title": "Dev. lider/ Co-Fundadora"
  },
  "Admin": {
    "admin-stuff": "Coisas da administração",
    "edit-about-page": "Agora você está editando a página sobre",
    "get-user-groups": "Obter Grupos de usuários",
    "joined": "Joined"
  },
  "Annual": "Pagamento anualmente",
  "Archive": {
    "archive": "Arquivar",
    "archive-comment": "Archive Comment",
    "archive-post": "Arquivar post",
    "are-you-sure": "Você tem certeza que você gostaria de arquivar esse post?",
    "are-you-sure-comment": "Are you sure you would like to archive this comment?",
    "are-you-sure-post": "Are you sure you would like to archive this post?",
    "cancel": "Cancelar",
    "deleted": "[DELETED]"
  },
  "Auth": {
    "account-email-verification": "Email de verificação de conta",
    "checking-details": "Checando detalhes...",
    "checking-for-bots": "Procurando por robôs",
    "email-confirmation-required": "Confirmação de email necessária",
    "email-match": "O email e a senha que você usou não coincidem",
    "human-detected": "Humano detectado",
    "make-a-new-account": "Por favor, note que você tem que fazer uma nova conta para acessar este website. Contas WTS 1.0 serão mescladas a essa plataforma em breve.",
    "newsletter": "Sign up to our newsletter (PTBR)",
    "please-check-your-email": "Por favor cheque seu email",
    "please-choose-new-password": "Por favor escolha uma nova senha",
    "please-confirm-email": "Por favor confirme seu endereço de email para usar WT.Social",
    "resend-email": "Reenviar email",
    "start-password-recovery": "Iniciar processo",
    "your-name": "This will be your display name. It does not need to be your real name. For more see our <a href='https://wt.social/name-policy'>Name Policy</a> (PTBR)"
  },
  "BeginnersGuide": {
    "how-to": {
      "change-your-settings": {
        "text": "You can update your language, profile, and notification settings in the ‘My Account’ screen at any time. If you would like to help translate the site into your language, let us know in the WTS Features subwiki.",
        "title": "Change Your Settings"
      },
      "invite-your-friends": {
        "text": "THIS ISN’T STARTED YET",
        "title": "Invite Your Friends, Family, and Fans"
      },
      "keeping-track-of-conversations": {
        "text": "THIS ISN’T FINISHED - NEED TO ADD THE ABILITY TO SUBSCRIBE TO A POST\nWhen you make a post, you’ll get a bell notification whenever someone edits it, or leaves a comment. You can also turn on email alerts for updates on the My Account page",
        "title": "Keeping Track of Conversations"
      },
      "share-a-post": {
        "text": "THIS ISN’T STARTED YET",
        "title": "Share a Post"
      },
      "talking-to-another-user": {
        "text": "WTS does not have private messaging, but you can leave someone a message by clicking on their username and creating a new post on their feed.",
        "title": "Talking To Another User"
      },
      "title": "How To",
      "using-hashtags": {
        "text": "THIS ISN’T STARTED AND WE NEED A COMMUNITY DISCUSSION ABOUT IT",
        "title": "Using Hashtags"
      }
    },
    "intro-paragraph": "Welcome to Wikitribune Social (or WTS as we like to call it)! Below is the most comprehensive guide to using our website. If you’ve found a bug, or would like to suggest an improvement - please make a post in the Bugs or WTS Features subwiki.",
    "latest-announcements": "Consulte aqui os últimos avisos da equipe oficial do Trust Cafe.",
    "more-info": {
      "comprehensive-list-of-subwikis-about-wts": {
        "text": "SAVING UNTIL SUBWIKIS ARE IMPORTED - THEN WE SHOULD COLLABORATE ON THIS",
        "title": "Uma Lista Abrangente de Subwikis Sobre o WT.Social"
      },
      "creating-new-fact-check": {
        "text": "SHOULD DISCUSS",
        "title": "Six Steps to Creating a New Fact Check on WT.Social"
      },
      "difference-between-collaborative": {
        "text": "Posts to WTS are ‘collaborative’ by default. This allows anyone to edit your post. It sounds scary, but it really isn’t! A transparent ‘revision history’ is on the right hand side, which shows what each person wrote.\n\nCommunity members usually reserve editing for minor improvements to posts, or alerting other users when something is wrong. We strongly encourage you to also get stuck in.\n\nNot every post needs to be collaborative. For example, maybe you want to post a personal picture, or your opinion on the latest book/movie. For these posts, you can turn off collaboration. Community and staff administrators will still be able to edit them, but this is mostly reserved for rule-breaking posts.",
        "title": "A diferença entre um post colaborativo e um post individual"
      },
      "title": "Mais informações",
      "who-runs-this-place": {
        "text": "On the day to day level? People like you. For more information about staff, please see the ‘About Us’ page.",
        "title": "Quem gerencia este lugar?"
      }
    },
    "sections": [
      {
        "items": [
          {
            "text": "Although you can see some similarities in our design, the social aspect of Trust Cafe is a lot different than what you might be used to. The website is dedicated to sharing trustworthy content and creating substantive discussions. You won’t see a lot of minion memes or other low quality content here.<br/><br/>We also operate on a peer-to-peer moderation system. That means you are empowered to make this a great place for all. If you see spam, misinformation, or hate speech, let people know by using the trust rating system.<br/><br/>Staff can and will step in if necessary, but the community (including community administrators) are the heart of the website.",
            "title": "What makes Trust Cafe different from Facebook and Twitter?"
          },
          {
            "text": "A good quality Trust Cafe post should have accurate and up-to-date information, provide sources for any claims made, and be written in a clear, concise, and easy-to-understand manner. Additionally, the post should be respectful of other viewpoints and should not contain any offensive language or content.",
            "title": "What makes a ‘quality post’?"
          },
          {
            "text": "The trust system is a great way for users to rate other users as trustworthy when they post good quality content. It helps create an environment of accountability and encourages people to be more mindful about the content that they are posting. Additionally, it can also help identify untrustworthy people who may be intentionally posting spam or inappropriate material.",
            "title": "Which users are trustworthy?"
          },
          {
            "text": "You can edit your own posts on Trust Cafe, like on any social media website. Unlike other platforms, users can edit each other’s posts to correct mistakes, reword headlines, and flag misinformation. In this way Trust Cafe is like a wiki: everyone can help curate quality content.",
            "title": "Editing A Post"
          },
          {
            "text": "If you see a comment that shouldn’t be there, such as hate speech or advertisements, you can hide the post from view for yourself and everyone else. This is one of the ways the community helps keep Trust Cafe tidy. If a comment is hidden by mistake, it can be unhidden just as easily.<br/><br/>When a user hides or unhides a comment, the change is logged in the Recent Changes list so that everyone can see. In addition to encouraging action on bad actors with hidden comments, this transparency measure also prevents clandestine abuse of the system.",
            "title": "Hiding Comments",
            "under_construction": true
          }
        ],
        "title": "INTRODUCTION"
      },
      {
        "items": [
          {
            "text": "You’ll notice that your home feed has two tabs: ‘Your Feed’ shows you every post from people or subwikis you are following, and ‘For You’ shows you all the latest posts, although as the trust network develops, new accounts and potential spammers will be displayed below trusted community members.",
            "title": "About Your Feed"
          },
          {
            "text": "A ‘space’ is a place to post content about a given topic, like subreddits or Wikipedia Projects. Trust Cafe has spaces for everything from US Politics to Puzzles from Around The World.<br/><br/><a href='subwikis/alphabetical'>You can browse all Trust Cafe spaces here.</a>",
            "title": "About Spaces"
          },
          {
            "text": "Trust Cafe believes in being as transparent as possible. If you click on <a href='recentchanges'>‘Recent Changes’</a> you can see every action taken on the website. This helps keep everyone accountable and is a great way to look into how moderation works on the platform.",
            "title": "About Recent Changes"
          },
          {
            "text": "On the day-to-day level? People like you!<br/><br/>For information about our staff team, please see <a href='About'>the ‘About Us’ page.</a>",
            "title": "Who Runs This Place?"
          }
        ],
        "title": "ABOUT"
      },
      {
        "items": [
          {
            "text": "You can update your language, notification settings, and other account details in <a href='myaccount'>the ‘My Account’ page</a> at any time. If you would like to help translate the site into your language, let us know in <a href='https://discord.gg/ftyB5yzwH5'>the official Trust Cafe Discord server</a>.",
            "title": "Altere as suas configurações"
          },
          {
            "text": "O Trust Cafe não tem mensagens privadas, mas pode deixar uma mensagem a alguém clicando no seu nome de utilizador e postando uma nova mensagem no seu feed.",
            "title": "Falar com outro usuário"
          },
          {
            "text": "EM CONSTRUÇÃO",
            "title": "Convide os seus amigos, família e seguidores",
            "under_construction": true
          },
          {
            "text": "This should explain both on-platform and off-platform sharing since both are important to growth......... To share a Trust Cafe post to your followers on other social media sites, use the share button [add image below] to share directly to Facebook or Twitter, or copy the link and paste it into an email or other message.",
            "title": "Partilhar um post",
            "under_construction": true
          },
          {
            "text": "THIS ISN’T FINISHED - NEED TO ADD THE ABILITY TO SUBSCRIBE TO A POST........When you make a post, you’ll get a bell notification whenever someone edits it, or leaves a comment. You can also turn on email alerts for updates on <a href='myaccount'>the ‘My Account’ page</a>.",
            "title": "Manter um registo das conversas",
            "under_construction": true
          },
          {
            "text": "THIS ISN’T STARTED AND WE NEED A COMMUNITY DISCUSSION ABOUT IT",
            "title": "Utilização de Hashtags",
            "under_construction": true
          }
        ],
        "title": "HOW TO"
      },
      {
        "items": [
          {
            "text": "Posts to Trust Cafe are collaborative, which allows anyone to edit your post. It sounds scary, but it really isn’t! A transparent ‘revision history’ is on the right hand side, which shows what each person wrote and when they wrote it.<br/><br/>Community members usually reserve editing for minor improvements to posts, or alerting other users when something is wrong. We strongly encourage you to follow these practices.",
            "title": "Collaborative Editing"
          },
          {
            "text": "SAVING UNTIL SUBWIKIS ARE IMPORTED - THEN WE SHOULD COLLABORATE ON THIS. This section will need different links for different languages since the spaces are separate.",
            "title": "Spaces About Trust Cafe",
            "under_construction": true
          },
          {
            "text": "EM CONSTRUÇÃO: add links to Self Promotion Policy, NSFW Policy, Names and Pseudonyms Policy",
            "title": "Termos de Serviço",
            "under_construction": true
          }
        ],
        "title": "Mais informações"
      }
    ],
    "terms-of-service": {
      "names-and-pseudonyms": "Nomes e Pseudônimos",
      "nsfw-policy": "Política de NSFW",
      "self-promotion-policy": "Política de Auto-Promoção",
      "title": "TERMOS DE SERVIÇO"
    },
    "the-basics": {
      "different-from-facebook": {
        "text": "Although you can see some similarities in our design, the social aspect of WTS is a lot different than what you might be used to. The website is mostly dedicated to sharing news and creating substantive discussions. You won’t see a lot of minion memes or other low quality content here.\n\nWe also operate on a peer-to-peer moderation system. That means you are empowered to make this a great place for all. If you see a comment you don’t like, hide it! If you see spam, misinformation, or hate speech, let people know.\n\n Staff can and will step in if necessary, but the community (including community administrators) are the heart of the website.",
        "title": "What makes WTS different from Facebook?"
      },
      "editing-a-post": {
        "imgcaption": "O Botão de Editar",
        "subitem": "What’s a collaborative post?",
        "text": "Yes, you can edit collaborative posts! By clicking on the edit icon, you can collaborate with other users on fact checks, fix headlines, or help fight against spam, misinformation, and hate speech. If you want to try it out, give this post an update.",
        "title": "Editing A Post"
      },
      "hiding-comments": {
        "text": "EM CONSTRUÇÃO",
        "title": "Comentários ocultos"
      },
      "quality-post": {
        "text": "On WTS, not every post has to be 'quality'. It's great to get people's holiday snaps and jokes. But in the interest of generating meaningful discourse, try to post non-inflammatory articles from trustworthy sources.\n\nIf you do find something interesting outside of that scope that you think needs debunking, add it with the hashtag #factcheck to let people know.",
        "title": "What makes a ‘quality post’?"
      },
      "title": "Os Fundamentos"
    },
    "title": "Um Guia para Iniciantes de Trust Cafe",
    "using-the-website": {
      "about-recent-changes": {
        "text": "RECENT CHANGES ISN’T FINISHED SO MORE TO ADD\nWTS believes in being as transparent as possible. If you click on ‘Recent Changes’ you can see every action taken on the website. This helps keep everyone accountable and is a great way to look into how moderation works on the platform.",
        "title": "Sobre mudanças recentes"
      },
      "about-subwikis": {
        "text": "A subwiki is a place to post content about a given topic, like subreddits or Wikipedia Projects. WT.Social has subwikis on everything from US Politics to Puzzles from Around The World.\n\nYou can browse subwikis by going to THIS IS NOT STARTED YET.",
        "title": "Sobre Ramificações"
      },
      "about-your-feed": {
        "text": "You’ll notice that your feed has two tabs. ‘My Feed’ shows you every post from people or subwikis you are following.\n\nDiscover shows you all the latest posts, although new accounts and potential spammers will be displayed below trusted community members.",
        "title": "Sobre a seu Feed"
      },
      "title": "Utilização do site"
    },
    "visual-guide": "Visual learner? Check out the Visual Guide to WTS here."
  },
  "Block": {
    "alert-text-blocking-admin-not-allowed": "Blocking an admin is prevented to avoid abuse of the blocking system. If you have a problem with an admin, please contact us.",
    "alert-title-blocking-admin-not-allowed": "Sorry, we can't let you do that",
    "btn-block-this-user": "Block this user",
    "btn-show-anyway": "Show me anyway",
    "btn-unblock": "Unblock",
    "btn-unblock-this-user": "Unblock this user",
    "click-manage-blocks": "Click here to manage your blocks",
    "heading-reason": "Your reason for blocking this user",
    "no-blocked-users": "You have not blocked any users",
    "reason-textarea-label": "Enter your reason for blocking this user (optional)",
    "resaon-explainer": "Blocking this user will hide their content from you.  You can enter an optional reason which will remain a private to you and our staff.",
    "this-has-been-blocked-by": "You’re unable to view this because this person limits who can view their content.",
    "this-user-has-blocked-you": "This user has blocked you",
    "title-manage-blocks": "Review or unblock users you have blocked",
    "unblock-explainer": "You are about to unblock this user",
    "you-have-blocked-this-content": "This has been blocked by you"
  },
  "Branch": {
    "describe-branch": "Describe this branch",
    "member": "no members | one member | {n} members",
    "post": "no posts | one post | {n} posts"
  },
  "Contact": {
    "contact-us": "Fale conosco",
    "contact-us-paragraph": "Formulario de contato",
    "discord": "Você também pode Conversar conosco no discord",
    "email": "Seu endereço de email",
    "message": "Mensagem",
    "name": "Nome",
    "send": "Enviar",
    "subject": "Assunto",
    "success": "Obrigado por nos contatar"
  },
  "EditBox": {
    "identifier": "identificador"
  },
  "Errors": {
    "email-confirmation-error": "There was an error confirming your address",
    "no-identifier": "Sem identificador!",
    "no-settings": "Sem configurações!"
  },
  "FAQS": {
    "is-translated": "",
    "questions": [
      {
        "answer": "Não. A missão do WT.Social é fornecer uma plataforma de comunicação social não tóxica, o que não pode acontecer num ambiente em que nada acontece. Tomamos uma posição proativa contra o discurso do ódio, o assédio e a desinformação.",
        "title": "O Trust Cafe é uma 'Plataforma de Discurso Livre'?"
      },
      {
        "answer": "No. Our guidelines are politically agnostic. The political leanings of users are not a consideration when making moderation decisions. What we want to encourage is <strong>reasoned-discourse</strong> among people who may have many disagreements.  Any community member who can refrain from hate speech, harassment, and misinformation is welcome. Having said that, it should (but unfortunately does not) go without saying that Nazis and other genocidally-inclined folks are not welcome here.",
        "title": "O WT.Social é uma plataforma de esquerda/direita?"
      },
      {
        "answer": "Exactly what it sounds like. Although staff members can and will step in to remove users violating our guidelines, and to shield users from the worst excesses of the internet, the everyday moderation of the platform can and should be handled by our users.<br/><br/>Why? Because top-down moderation (or worse, AI-driven moderation) does not work. Facebook moderation has created an entire <a href='https://www.irishtimes.com/business/technology/life-as-a-facebook-moderator-people-are-awful-this-is-what-my-job-has-taught-me-1.4184711'>class of employees with PTSD</a> with the inability to act when they see patently harmful content.<br/><br/>Algorithmic moderation often creates policies which reinforce existing social biases and can <a href='https://www.washingtonpost.com/technology/2021/11/21/facebook-algorithm-biased-race/'>promote racism</a>. Social media companies reliant solely on ad-driven revenue <a href='https://www.forbes.com/sites/petersuciu/2021/08/02/spotting-misinformation-on-social-media-is-increasingly-challenging'>allow misinformation to spread</a> for the sake of engagement and clicks. And it's not scalable. AI <a href='https://www.digitalinformationworld.com/2021/02/ai-content-moderation-systems-are.html'>cannot currently keep up</a> with the ever-changing nature of human behavior, and even tech giants cannot afford to hire enough human moderators to police their platforms.<br/><br/>WT.Social allows users to edit posts, and hide comments. They can directly combat spam, request and start collaborative fact checks, and otherwise shape the platform into what they want it to be. It's a radical idea, but we firmly believe it's the future.",
        "title": "O que é a Moderação de Ponto-a-ponto?"
      },
      {
        "answer": "We provide a link on sign-up allowing you to invite people to follow you on WT.Social. The url is <code>https://wt.social/YOUR-USERNAME-HERE/followme</code>",
        "title": "Como posso levar os meus seguidores a confiar no Trust Cafe?"
      },
      {
        "answer": "Usuários como você. Nós não recebemos dinheiro de VC (Venture Capital), nem permitimos anunciantes em nossa plataforma. Contamos com a generosidade da nossa comunidade para manter as luzes acesas. Se quiser ajudar, considere fazer uma contribuição <a href='https://contribute.wt.social/'>aqui</a>.",
        "title": "Quem financia o Trust Cafe?"
      },
      {
        "answer": "Você com certeza pode! Desde que siga as nossas orientações de autopromoção, conforme estabelecido em  <a href='https://wt.social/self-promotion'>aqui</a>.",
        "title": "Posso promover o meu Blog/Podcast/Negócio aqui?"
      },
      {
        "answer": "WT.Social began as an attempt to create user-driven news content. To that end, we named ourselves WikiTribune (as in <a href='https://dictionary.cambridge.org/dictionary/english/tribune'>newspaper</a>, not the Roman forum). Although there was interest in the idea, there were too many barriers to make a flourishing platform. In light of this, we pivoted to creating value in the social media space. WikiTribune was shortened to WT.",
        "title": "Por que é chamado de Trust Cafe?"
      },
      {
        "answer": "Not at the present time, as we haven't seen any persuasive use case for the blockchain for our actual needs.  We are open to financial support in pretty much any currency, including cryptocurrency, though!",
        "title": "Are You Open To Being On The Blockchain?"
      }
    ]
  },
  "Following": {
    "following-nobody": "Você não está seguindo ninguém",
    "users-following": "Pessoas que você segue"
  },
  "General": {
    "404": "Essa página provavelmente foi abduzida por algo Borg maldito e não esta mais disponível 'aqui'",
    "FAQS": "FAQS",
    "about": "Sobre",
    "about-header": "WTS2 (WT.Social MK-I)",
    "about-paragraph": "Eu podia estar escutando uma certa trilha sonora neste momento.... \n\n Quem sabe!",
    "all": "All",
    "all-branches": "All Branches",
    "all-posts": "Todos os posts",
    "all-subwikis": "All Subwikis (PTBR)",
    "are-you-sure-delete-key-pair": "Are you sure you want to delete this key pair?",
    "back": "Voltar",
    "branch-for-new-post": "Branch for new post",
    "branches": "Branches",
    "cancel": "Cancelar",
    "cant-log-in-right-now": "Desculpe, nós não podemos logar você agora",
    "changes": "Mudanças",
    "choose-scopes": "Choose which scopes you want to grant your client",
    "choose-your-language": "Escolha seus idioma",
    "close": "Fechar",
    "comment": "Comentario",
    "comment-fetch-error": "Ooops!, Não há comentários para mostrar aqui",
    "comment-placeholder": "Deixe um comentário",
    "comment-text": "Comment Text",
    "commented-on-a-post": "Commented on a post",
    "confirm-password": "Confirmar senha",
    "contact": "Fale conosco",
    "continue-reading": "Continuar lendo",
    "create": "Criar",
    "create-a-branch": "Create A Branch",
    "create-a-subwiki": "Criar uma subwiki",
    "create-new-client-credentials-key-pair": "Create new client credentials key pair",
    "created-a": " criada uma",
    "created-new-branch": "created a new branch",
    "created-new-comment": "criou um novo comentário",
    "created-new-post": "criou um novo post",
    "created-new-subwiki": "criou uma nova subwiki",
    "created-new-userprofile": "criou um novo perfil de utilizador",
    "created-new-vote": "criou uma nova votação",
    "dark-mode": "Modo noturno",
    "describe-your-new-branch": "Describe Your New Branch",
    "describe-your-new-subwiki": "Descreva sua nova Subwiki",
    "discover": "Descobrir",
    "edit": "Editar",
    "edit-attached-link": "Editar link anexado",
    "edit-copy": "Editar copia",
    "edit-this-post": "Editar este post",
    "editing": "Editando",
    "email-address": "Endereço de e-mail",
    "error-loading-link": "Ocorreu um erro ao carregar esse link",
    "first-name": "Primeiro nome",
    "follow": "seguir",
    "followed-you": "Seguem você",
    "following": "Seguindo",
    "for-you": "For you (PTBR)",
    "forgot-password": "esqueceu a senha",
    "forgotten-password": "Senha esquecida",
    "guest": "Guest",
    "home": "Início",
    "is-collaborative": "collaborative post",
    "item-cannot-be-followed": "Item não pode ser seguido",
    "last-name": "Ultimo nome",
    "load-more": "Carregar mais",
    "loading-full-data": "carregando dados completos do link",
    "loading-user": "Carregando usuário",
    "login": "Logar",
    "login-or-register": "Logar ou Registrar",
    "logout": "Deslogar",
    "make-new-branch": "Make New Branch",
    "make-new-subwiki": "Criar uma nova subwiki",
    "manage-api-access": "Gerenciar o acesso da API",
    "many-comments": "comentarios",
    "monthly": "Mensal",
    "more-info": "More Info",
    "must-be-online-to-continue": "You must be online to continue",
    "my-account": "Minha conta",
    "my-payments": "Meus pagamentos",
    "new-branch-name": "New branch name?",
    "new-post-button": "Criar um novo post",
    "new-subwiki-name": "Novo nome para a subwiki?",
    "next": "Próximo",
    "no-user": "Sem usuario",
    "none": "None",
    "not-collaborative": "personal post",
    "on": "em",
    "one-comment": "comentario",
    "one-moment": "Um momento por favor",
    "one-off": "Único",
    "oops-looks-like-youve-entered-the-wrong-login": "Oops! Parece que você digitou o login errado",
    "pages": "Páginas",
    "password": "Senha",
    "password-input-must-match": "A senha digitada deve coincidir",
    "password-recovery": "Recuperar senha",
    "pay-with-debit/credit-card": "Pagar usando cartão de débito/crédito",
    "pay-with-paypal": "Pagar usando Paypal",
    "please-enjoy-your-stay": "Por favor aproveite sua estadia",
    "post-placeholder": "No que você está pensando?",
    "post-text": "Post Text",
    "posted-in": "postado em",
    "posted-in-their-branch": "posted in their branch",
    "posted-in-their-branch-at": "posted in their branch at",
    "posted-to": "postado em",
    "posted-to-their-feed": "postado em seu feed",
    "posted-to-their-feed-at": "postado no feed dele feed às",
    "posts": "Posts",
    "posts-by-id": "Posts pelo ID",
    "profile": "perfil",
    "profile-url": "URL do perfil",
    "random-box": "Caixa aleatória",
    "read-all-posts": "Você já leu todos os posts aqui!",
    "recent-changes": "mudanças recentes",
    "recommended-branches": "Recommended Branches",
    "recommended-subwikis": "Conteúdo Recomendado",
    "refresh": "Atualizar",
    "register": "Registrar",
    "remove": "Remover",
    "replied": "respondido",
    "replied-at": "respondido em",
    "reply": "Responder",
    "required": "Necessario",
    "restart": "Reiniciar",
    "retry": "Retornar",
    "revisions": "Revisões",
    "save": "Salvar",
    "settings": "Configurações",
    "subscribe": "Inscreva-se",
    "subwiki-for-new-post": "Subwiki para um novo post",
    "subwikis": "Subwikis",
    "take-note": "Take note of the following details. If you lose them you'll need to create a new secret.",
    "testing": "Estou testando",
    "there-are-no-changes-to-show": "Não há mudanças para mostrar",
    "there-arent-any-followers-followed-by-users": "There are no users followed by this user",
    "there-arent-any-followers-following-subwikis": "There are no branches followed by this user",
    "there-arent-any-followers-following-users": "There are no users following this user",
    "there-arent-any-posts-here": "Não há nenhum post aqui",
    "there-is-a-problem-with-your-account": "Há um problema com sua conta",
    "there-was-an-error": "There was an error",
    "this-comment-has-been-archived": "This comment has been archived",
    "trust": "Confiança",
    "unfollow": "Deixar de seguir",
    "updated-a-branch": "updated a branch",
    "updated-a-comment": "atualizou um comentário",
    "updated-a-post": "atualizou um post",
    "updated-a-subwiki": "atualizou uma subwiki",
    "updated-a-userprofile": "atualizou um perfil de utilizador",
    "updated-your": "Atualizou seu",
    "url-is-available": "Esta URL está disponível",
    "url-is-taken": "Esta URL já está em uso",
    "user-profile": "Perfil do usuario",
    "users": "Usuarios",
    "visit-branch": "Visit Branch",
    "visit-subwiki": "Visite Subwiki",
    "welcome": "bem vindo",
    "welcome-to-wts2": "Bem vindo(a) à WTS2",
    "yearly": "Anualmente",
    "you-have-been-disconnected": "Você está desconectado da Internet",
    "you-have-max-clients": "You have the maximum number of clients",
    "you-have-no-api-clients": "You have no API clients",
    "you-need-to-be-online": "Você precisa estar online para utilizar o Trust Cafe",
    "your-client-ids": "Os seus ID de cliente",
    "your-conection-has-been-restored": "A sua ligação foi restabelecida",
    "your-email-is-not-verified-notice": "Your email is not verified so some features are disabled. Please check your email for a verification link.",
    "your-feed": "Seu feed",
    "your-new-creds": "Your new API Client credentials"
  },
  "Monthly": "Pagamento mensalmente",
  "MyBranches": {
    "browse-branches": "Browse Branches",
    "my-branches": "My Branches",
    "not-following-branches": "You are not currently following any branches."
  },
  "MySubwikis": {
    "browse-subwikis": "Procurar Ramificações",
    "my-subwikis": "Minhas ramificações",
    "not-following-subwikis": "No momento, você não está seguindo nenhuma ramificações."
  },
  "Notifications": {
    "action_article_updated": "updated your post",
    "action_comment_reply": "replied to you",
    "action_profile_post": "posted on your profile",
    "action_rank_up": "You were promoted",
    "action_trust_created": "rated you",
    "article-updates": "Atualizações de um artigo",
    "new-comment": "Novo comentário",
    "new-comment-responding-to something-I-have-done": "Novo comentario respondendo alguma coisa que eu tenha feito",
    "new-followers": "Novos seguidores",
    "new-message-to-me-on-my-profile": "Nova mensagem para mim em meu perfil",
    "new-messages": "Novas mensagens",
    "notification-preferences": "Notification Preferences",
    "preferences": "Preferencias de Email",
    "rank-down": "Rank Down",
    "rank-up": "Rank Up",
    "someone-trusts-me": "When someone new trusts me",
    "someone-trusts-me-more": "When someone increases their trust rating of me",
    "trust-created": "New trust",
    "trust-increased": "Trust Increased",
    "update-to-an-article-I-have-created-or-edited": "Atualizarem um artigo que eu tenha criado ou editado",
    "when-a-user-follows-me": "Quando um usuário me seguir",
    "when-my-rank-decreases": "When I am demoted a rank",
    "when-my-rank-increases": "When I am promoted a rank",
    "when-someone-posts-to-me-directly": "When someone posts to me directly",
    "when-something-i-have-posted-or-edited-is-edited": "When something I have posted or edited is edited further"
  },
  "Password": {
    "change-password": "alterar senha",
    "forgotten-password": "Senha esquecida",
    "login-now": "Logar agora",
    "minimum-characters": "minimo de 8 caracteres",
    "password-recovery": "Recuperar senha",
    "password-reset-sentence-part-1": "Por favor certifique-se de seguir o link completo em seu email, se você continuar a ter problemas por favor",
    "password-reset-sentence-part-2": "ou tente",
    "password-reset-sentence-part-3": "redefinir sua senha novamente",
    "there-was-a-problem-validating-the-reset-token": "Ocorreu um problema ao validar o token de redefinição",
    "your-password-could-not-be-changed-at-this-time": "Sua senha não pode ser alterada neste momento",
    "your-password-has-been-changed": "Sua senha foi alterada"
  },
  "Pay with Paypal": "Pagamento com Paypal",
  "Pay with debit/credit card": "Pagar com cartão de débito/crédito",
  "PayPal": {
    "new-paypal-contribution": "Nova contribuição com o PayPal",
    "paypal-thank-you": "Muito obrigado!"
  },
  "Payment": {
    "click-here": "clique aqui",
    "contributions": "Contribuições",
    "currency": "Moeda",
    "error-fetching-schedules": "Ocorreu um erro ao buscar por seus pagamentos agendados",
    "fetching-schedules": "Buscando por pagamentos agendados",
    "go-back-to-wt-social": "Voltar para WT.social",
    "hint-receipt": "Isto é somente para o recibo",
    "if-you-would-like-to-make-an-account": "Você gostaria de fazer uma conta",
    "payment-amount": "Quantia",
    "payment-are-you-sure": "Você tem certeza que quer cancelar essa inscrição?",
    "payment-cancel-confirm": "Realmente cancelar?",
    "payment-cancelled": "Cancelado",
    "payment-cancelling": "Cancelando",
    "payment-continue": "Continuar",
    "payment-contributions": "Contribuições",
    "payment-created": "Criado",
    "payment-custom": "Outra",
    "payment-custom-amount": "Outra quantia",
    "payment-form-choose-your-plan": "Escolha seu plano",
    "payment-form-new-contribution": "Nova contribuição financeira",
    "payment-form-next-payment": "Próximo: Pagamento",
    "payment-form-payment": "Pagamento",
    "payment-form-thank-you": "Obrigado pela sua contribuição.",
    "payment-provider": "Fornecedor",
    "payment-status": "Status",
    "payment-subscription": "Inscrições",
    "payment-subscriptions": "Inscrições",
    "payment-term": "Termo",
    "support": "Support Trust Cafe (PTBR)",
    "user-amount-currency": "Quantia/Moeda",
    "user-fetch-payment-error": "Ocorreu um erro ocorrendo com seu pagamento.",
    "user-payment-provider": "sistema de pagamento",
    "your-contribution-wont-go-to-waste": "Sua contribuições não serão desperdiçadas!",
    "your-email-address": "Seu endereço de e-mail"
  },
  "Post": {
    "a-branch": "A Branch",
    "a-subwiki": "Em uma Subwiki",
    "branch-search": "Start typing to search",
    "collaborative": "Make this post collaborative",
    "do-you-want-other-users-to-be-able-to-edit-this-post": "Do you want other users to be able to edit this post?",
    "my-profile": "No meu perfil",
    "post": "Post",
    "post-actions": "Post Actions",
    "subwiki-search": "Comece digitando para pesquisar",
    "to-branch": "Post to Branch",
    "to-subwiki": "Postar na subwiki",
    "where": "Onde você gostaria de postar?"
  },
  "PostRestrictions": {
    "text": "On Trust Café, users can block other users. When you see that content has been restricted from view, it might be due to another user blocking you from viewing their profile and associated posts and comments.",
    "title": "About Post Restrictions"
  },
  "Profile": {
    "continue-editing": "continuar editando",
    "discard-changes": "Descartar mudanças",
    "drag-your-image-here": "Arraste sua \n  Imagem para cá",
    "edit-my-profile": "Editar meu perfil",
    "followers": "Seguidores",
    "leave-a-message": "Leave a message on My Branch",
    "unsaved-changes": "Você tem mudanças não salvas, você tem certeza que deseja descartá-las?",
    "uploading-cover-picture": "Enviando imagem de capa",
    "uploading-profile-picture": "Enviando foto de perfil",
    "your-biography": "Sua biografia"
  },
  "Recommended": {
    "for-fun": "Por diversão",
    "serious-stuff": "Assuntos Sérios",
    "technology": "Tecnologia",
    "to-help-build": "Ajudar a construir a Trust Cafe"
  },
  "RevisionList": {
    "by": "Por",
    "confirm-revert": "Você tem certeza que deseja reverter para essa versão?",
    "revert-to": "Reverter para",
    "revision": "Revisão",
    "revisions": "revisões",
    "there-are": "Há",
    "there-is": "Há"
  },
  "Roadmap": {
    "statuses": {
      "awaiting": "Aguardando",
      "complete": "Completo",
      "in-progress": "Em progresso",
      "ongoing": "Em curso",
      "paused": "Pausado",
      "testing": "Testando"
    },
    "timeline": [
      {
        "desc": "O primeiro passo para a nova visão de Jimmy é permitir que usuários avaliem uns aos outros.",
        "goal": "Classificação de Confiança"
      },
      {
        "desc": "Tipicamente utilizado como parte do bloqueio/eliminação de contas",
        "goal": "Arquivamento em massa das coisas de um utilizador"
      },
      {
        "desc": "Para que todos possamos discutir como está sendo utilizado",
        "goal": "Deixe todo mundo ver quem confia em quem e quanto"
      },
      {
        "desc": "Permitir que os utilizadores expressem o seu descontentamento com alguém",
        "goal": "Change trust rating bar so it is -20% to +100%"
      },
      {
        "desc": "Para que todos possamos discutir como está sendo utilizado",
        "goal": "Que todos vejam em quem é confiado por um utilizador"
      },
      {
        "desc": "Tabelas ou tabela simples para mostrar os Top Users",
        "goal": "Que todos vejam quem está altamente classificado no site"
      },
      {
        "desc": "Implementar primeiro um algoritmo extremamente básico para triar o separador descobrir pelo tempo E pela qualidade",
        "goal": "Mecanismo de confiança: Causa e efeito"
      },
      {
        "desc": "So interesting new users (based on trust) we identify can get big followings quickly",
        "goal": "Sugestões de pessoas no Onboarding"
      },
      {
        "desc": "",
        "goal": "Destruir um post e todos os comentários inteiramente"
      },
      {
        "desc": "Para que possamos analisar",
        "goal": "Veja quem as pessoas estão seguindo e quem as seguem"
      },
      {
        "desc": "Notificar-me quando alguém comentar no meu post ou o meu no comentário ou editá-los",
        "goal": "Notificações de comentários"
      },
      {
        "desc": "Remover a notificação da campainha quando alguém que eu siga postar",
        "goal": "Notificação de desclassificação"
      },
      {
        "desc": "Notificações por e-mail",
        "goal": "Ter notificações por e-mail"
      },
      {
        "desc": "O tipo padrão de e-mails, mas a eles o que precisam fazer para a promoção",
        "goal": "E-mails de 24 e 72 horas de novos utilizadores"
      },
      {
        "desc": "Eliminação e fusão de espaços são ferramentas de que vamos precisar",
        "goal": "Moderação Subwiki"
      },
      {
        "desc": "Um lugar para as pessoas discutirem e debaterem quaisquer questões com o conteúdo",
        "goal": "Centro de Moderação"
      },
      {
        "desc": "Para ajudar as pessoas que ficarem empacadas, iremos precisar deste guia útil",
        "goal": "Guia para iniciantes"
      },
      {
        "desc": "Este será um dia excitante, mas há algumas coisas que precisamos fazer primeiro.",
        "goal": "Open source Trust Cafe"
      },
      {
        "desc": "Uma funcionalidade que temos no WTS que ajudará a espalhar a palavra",
        "goal": "Links de 'Siga-me'"
      },
      {
        "desc": "Uma das funcionalidades mais solicitadas",
        "goal": "Capacidade para seguir um posto"
      },
      {
        "desc": "Antes de podermos fazer a transição para o Trust Cafe, isto terá que ser feito",
        "goal": "Preferências de newsletter"
      },
      {
        "desc": "Uma funcionalidade básica do WTS que ainda falta no Trust Cafe",
        "goal": "Posts fixados"
      },
      {
        "desc": "Uma funcionalidade básica do WTS que ainda falta no Trust Cafe",
        "goal": "Repostando"
      },
      {
        "desc": "Uma funcionalidade básica do WTS que ainda falta no Trust Cafe",
        "goal": "Bloqueio de usuário para usuário"
      },
      {
        "desc": "Uma funcionalidade básica do WTS que ainda falta no Trust Cafe",
        "goal": "Capacidade de desativar a edição colaborativa"
      },
      {
        "desc": "A esta altura podemos mudar permanentemente para o Trust Cafe",
        "goal": "Lançamento do MVP"
      },
      {
        "desc": "Ex: Mostrando horários no seu fuso horário e formato local",
        "goal": "Personalizações regionais"
      },
      {
        "desc": "Há muito tempo estávamos queremos ver mensagens em várias línguas",
        "goal": "Tradução post/comentário/mudanças recentes"
      },
      {
        "desc": "O algoritmo de pesquisa do WTS é horrível e queremos ter a certeza de que a sua substituição é realmente utilizável",
        "goal": "Pesquisa"
      },
      {
        "desc": "A publicação de vídeos em sites de redes sociais é comum e deve ser algo que apoiamos",
        "goal": "Upload de vídeos"
      },
      {
        "desc": "Com isso poderemos começar a trabalhar em um aplicativo móvel ou permitir que outras pessoas experimentem.",
        "goal": "Fluxo de código de autorização OAuth com PKCE"
      }
    ],
    "title": "Guia de features"
  },
  "Sidebar": {
    "people-i-follow": "People I Follow",
    "people-i-trust": "People I Trust",
    "people-who-follow-me": "People Who Follow Me",
    "people-who-trust-me": "People Who Trust Me",
    "who-i-follow": "Who I Follow",
    "who-i-trust": "Who I Trust"
  },
  "Single": "Pagamento uma única vez",
  "SocialMedia": {
    "first-line": "Eu preciso de sua ajuda",
    "header": "Caro(a) contribuidor(a)",
    "is-translated": "",
    "paragraph-1": "Todos os problemas no mundo que eu me predispus a tentar resolver com a WikiTribune Social estão piores do que nunca. Nós estamos todos vendo a possibilidade de que Elon Musk compre o twitter e transforme-o em uma zona radical de liberdade de expressão para trolls. Ele é o  próprio notório de comportamento ruim no twitter - ele definitivamente não tornará o twitter menos tóxico.",
    "paragraph-2": "Ele prometeu permitir que Donald Trump volte para a plataforma em nome da \"liberdade de expressão\", mas vamos ser claros no que ele realmente quer: Trump manteve o Twitter na primeira página de qualquer jornal no mundo por metade de uma década e isso é muito lucrativo para ele trazer ele de volta, não importa o custo.",
    "paragraph-3": "Wikitribune tem um modelo diferente. Um modelo estranho, para ser sincero, mas eu acredito nele. Nós não queremos queremos que nossa plataforma cresça focada em ter o tanto de visualizações de página possivel através de maximização do vício e da ofensa",
    "paragraph-4": "Não há um caminho simples para evitar dizer isso. Eu escolhi não levantar dinheiro de venture capital porque eu quero manter controle criativo total para construir a visão que eu tenho em minha mente. Nos últimos dois anos, fui o pessoalmente o maior financiador do projeto - mas isso está pressionando meus recursos pessoais",
    "paragraph-5": "Nos últimos meses, nós voltamos de volta para a base de códigos e re-arquitetamos completamente ela do zero aplicando tudo o que nós temos aprendido. Nós temos uma ótima comunidade e o novo software irá ter novas formas de dar suporte e recompensar pessoas por fazerem posts de qualidade (Ao invés de como todas as outras redes sociais recompensam pessoas por fazerem virais viciantes e fúteis).",
    "paragraph-6": "Mas para concluir, eu preciso de sua ajuda. Eu tenho que pagar pelo trabalho de desenvolvimento para terminar a nova versão do site e eu preciso fazer um pouco de relação pública e marketing para difundir a palavra.  Eu preciso realmente começar a levar isso à diante como um relançamento. Se cada um de vocês puder proporcionar uma doação mesmo que seja pouco, Eu acho que nós teremos um verdadeiro pontapé para fazermos algo realmente revolucionário e novo. Nós não vamos saber ao menos que continuemos tentando.",
    "paragraph-7": "Essa é a nossa chance de quebrar as costas de redes sociais tóxicas oferecendo uma alternativa melhor. Como a compra iminente do twitter por Musk e os meio termos dos EUA se aproximando, o tempo é curto para criar um espaço para uma discussão mais saudável ",
    "second-header": "Nós estamos severamente com poucos recursos",
    "sign-off": "Jimmy Wales"
  },
  "Stripe": {
    "amount": "Quantia",
    "cancel": "Cancelar",
    "closed": "Fechado",
    "date": "Data",
    "description": "Descrição",
    "download": "Baixar",
    "due": "Vencimento",
    "fetch-invoice-error": "Há um erro nos detalhes do seu recibo",
    "fetch-payment-error": "Oops - Ocorreu um erro ao procurar os detalhes de seu pagamento",
    "fetch-subscriptions-error": "Oops - Ocorreu um erro ao buscar suas inscrições",
    "fetching-invoices": "Buscando recibos",
    "fetching-payments": "Buscando pagamentos",
    "fetching-subscriptions": "Buscando inscrições",
    "form-load-error": "Ocorreu um erro ao exibir o formulário de pagamento: ",
    "invoice": "Fatura",
    "no-subscriptions": "Você tem inscrições ativas.",
    "paid": "Pago",
    "pay-now": "Pague Agora",
    "payment": "Pagamento",
    "pending": "Pendente",
    "status": "Status",
    "thank-you": "Pagamento bem sucedido, Obrigado!"
  },
  "Subwiki": {
    "describe-subwiki": "Descreva essa subwiki",
    "member": "sem membros | um membro | {n} membros",
    "post": "sem posts | um post | {n} posts"
  },
  "Support": {
    "Elon-6-10-22": {
      "is-translated": "",
      "paragraph-1": "Você não precisa pagar - mas aqui está o porquê Eu estou pedindo para que faça isso!",
      "paragraph-2": "É apenas uma questão de tempo até Elon Musk cumpra sua promessa de trazer de volta Donald Trump e permitir muitos abusos e desinformação for legalmente possível.",
      "paragraph-3": "Se você pensa que isso é um futuro triste para o mundo, por favor ajude-me enviando uma pequena doação mensal ou anual - e ajudando a espalhar a palavra. Nós precisamos melhorar o software e gostaria de poder fazer isso sem pressão de investidores para aceitar anúncios e algoritmos destinados a viciar."
    },
    "bullet-point-1": "Lutar contra a toxicidade das redes sociais que estão destruindo a democracia",
    "bullet-point-2": "A pensativa e colaborativa plataforma de mídia social",
    "bullet-point-3": "Um site orientado pela qualidade de seu conteúdo, não por ultraje",
    "bullet-point-4": "Um design consciente e um passo para longe do vício em dopamina",
    "list-preface": "Ao nos dar suporte, você está dando suporte a:",
    "list-suffix": "Obrigado por tudo o que você pode fazer para nos ajudar com esse esforço.\n\nJimmy Wales",
    "no-thank-you": "Não obrigado, eu não gostaria de pagar ainda",
    "paragraph-1": "Muito Obrigado por ter escolhido contribuir financeiramente para o futuro do WT.Social. Suporte de \n pessoas como você é essencial para que continuemos a nos empenhar em melhorar \n nossos serviços e proporcionar um cenário mais saudável para a internet.",
    "paragraph-2": "Com seu suporte, nos estaremos aptos para investir em mais desenvolvimento e lançar um novo \n site o mais rápido possível e divulgar nossa plataforma.",
    "patron-link": "Descubra mais hoje",
    "patron-link-preamble": "Se você gostaria de nos ajudar em um nível maior, você pode se juntar a nós no Patron"
  },
  "There are no changes to show": "Não há nenhuma mudança para mostrar",
  "Time": {
    "ago": "há {time}",
    "day": "0 dias | um dia | {n} minutos",
    "fetched-in-time-from-place": "Buscado em {time} segundos {source}",
    "hour": "0 horas | uma hora | {n} horas",
    "minute": "0 minutos | um minuto | {n} minutos",
    "month": "0 meses | um mês | {n} meses",
    "second": "0 segundos | um segundo | {n} segundos",
    "year": "0 anos | um ano | {n} anos"
  },
  "Trust": {
    "0": "não conheço esse usuário de forma alguma",
    "1": "Hmm",
    "2": "Talvez",
    "3": "Ok",
    "4": "Ótimo!",
    "5": "Eu sempre confiaria nesse usuário!",
    "no-users-have-rated-user": "Nenhum usuário classificou {user}",
    "people-i-trust": "Pessoas em quem confio",
    "people-who-trust-me": "Pessoas que confiam em mim",
    "rated-by-this-user": "Avaliado por este usuário",
    "ratings-by-this-user": "Avaliações deste usuário",
    "ratings-of-this-user": "Ratings of this user",
    "set-trust-level": "Defina seu nível de confiança para este usuário",
    "user-has-not-rated-any-users": "{user} não classificou nenhum usuário",
    "user-rated-user2-x": "avaliado {user2} <strong>{trustLevel}%</strong>",
    "user-was-rated-x-by-user2": "foi avaliado <strong> {trust Level}% </strong> pelo {user2}",
    "users-rated-by": "Users rated by",
    "users-who-rated": "Users who rated",
    "you": "Este é você",
    "you-rated": "Você classificou este usuário:"
  },
  "TrustLevels": {
    "intro": "<b>Note: This is a draft document of ideas - we are seeking feedback and clarifying questions!</b><br/><br/>At Trust Cafe, trusted content is king. A user’s trust level influences how and where their content is visible to others. It also affects how much weight their votes carry, and can confer some additional permissions at higher levels. When a user is promoted (say from Bronze to Silver) their votes will retroactively count for more, thus automatically moving up the people beneath them.<br/><br/>Below is a quick (but not fully comprehensive) overview of each level of trust.",
    "levels": [
      {
        "description": "This is for new users and helps ensure that spammers or other bad actors don’t enter the wider trust ecosystem. After a brief period of time or sufficient constructive contributions, a user will be promoted from this rank.",
        "name": "Newbie/Guest",
        "unlocked": "None",
        "weight": "0"
      },
      {
        "description": "Users have shown they are not malicious actors and have now moved one level up to where they can enter the trust ecosystem.",
        "name": "Citizen",
        "unlocked": "Other users can vote to move you up the trust system",
        "weight": "0"
      },
      {
        "description": "Users have been voted trustworthy by enough members of the community that they are now able to give out trust points. This level is also the default for people who have joined the Trust Cafe membership club(?).",
        "name": "Bronze",
        "unlocked": "The ability to grant trust points to another user",
        "weight": "1"
      },
      {
        "description": "Users have been active or prominent enough on the website to gain a good level of trust. This is where we would expect the average active community member to be.",
        "name": "Silver",
        "unlocked": "The ability to create subwikis",
        "weight": "2"
      },
      {
        "description": "To reach this level, a user will have had to accrue 180 trust points. Users at gold level will have some markings on their account to delineate them from lower trust levels.",
        "name": "Gold",
        "unlocked": "Community administration tools",
        "weight": "4"
      },
      {
        "description": "A user will have accrued 1620 trust points, which we do not expect anyone to reach for quite some time. This is exclusively for power users or exceptionally trustworthy members of the community.",
        "name": "Platinum",
        "unlocked": "Zoom party (yes, really)",
        "weight": "8"
      },
      {
        "description": "See platinum. Just…moreso",
        "name": "Diamond",
        "unlocked": "The ability to instantly promote accounts to Bronze level",
        "weight": "16"
      },
      {
        "description": "Like platinum just (literally) exponentially moreso.",
        "name": "Double Diamond",
        "unlocked": "The ability to instantly promote accounts to Silver level",
        "weight": "32"
      },
      {
        "description": "Jimmy. It’s just Jimmy.",
        "name": "Grand Poobah",
        "unlocked": "The ability to be Jimmy. If you unlock this, I think it officially qualifies as identity theft.",
        "weight": "64"
      }
    ],
    "title": "Trust Cafe Ranking System",
    "unlocked": "Unlocked",
    "vote_weight": "Vote Weight"
  },
  "UserDetails": {
    "apologies": "We are working hard to bring people the ability to update your name and slug. In the meantime, you will only be able to change your name/slug by deleting your account and starting over. We apologise for the inconvenience.",
    "edit-my-account-details": "Edit My Account Details",
    "new-email": "New Email Address",
    "new-email-hint": "Enter your new email address",
    "update-account-header": "Update Your Account Details",
    "update-email": "Update Email",
    "update-email-form-button": "Update your email address"
  },
  "Userprofile": {
    "contributions": "Contributions",
    "everything": "Everything",
    "my-branch": "My Branch",
    "posts": "Posts"
  },
  "Welcome": {
    "beginners-guide": "Clique aqui para se aprofundar no nosso Guia do iniciante da WTS",
    "branches": "Branches to follow:",
    "choose-theme": "Escolha seu tem",
    "click-to-select-pic": "Clique para selecionar uma foto de perfil",
    "dive-in": "Mergulhar",
    "finish": "terminar integração",
    "get-you-started": "Obrigado por se cadastrar para a Wikitribune Social 2.0. Aqui estão algumas coisas para você começar a fazer:",
    "profile-picture": "Escolha uma foto de perfil",
    "skip-onboarding": "Pular integração.",
    "subwikis": "Subwikis para seguir:"
  },
  "_COMMENT": "THESE ARE ALL HERE INSTEAD OF IN A SECTION BECAUSE WE NEED TO INTERPRET THE STRINGS IN RECENT CHANGES - RECENT CHANGES DESPERATELY NEEDS REFACTORING BUT UNTIL SUCH A POINT AS WE'VE DONE THAT THESE HAVE TO LIVE OUTSIDE OF A SECTION",
  "archived a post": "arquivou um post",
  "branchCount": "Branches created",
  "commentCount": "número de comentários",
  "created new branch": "created a new branch",
  "created new comment": "criou um novo comentário",
  "created new post": "Novo post criado",
  "created new subwiki": "criou uma nova subwiki",
  "created new userprofile": "criou um novo perfil de usuário",
  "created new vote": "Nova votação criada",
  "language": "Português",
  "okay": "Okay",
  "postCount": "número de postos",
  "profileAge": "Idade do perfil",
  "subwikiCount": "Ramificações criadas",
  "testing": "Eu estou testando!",
  "totalActions": "Total de ações",
  "totalFollowers": "Total De Seguidores",
  "totalProfilePosts": "Total De Postagens No Perfil",
  "updated a branch": "updated a branch",
  "updated a comment": "Comentario atualizado",
  "updated a post": "Atualizou um post",
  "updated a subwiki": "Atualizou uma subwiki",
  "updated a userprofile": "Perfil de usuario atualizado"
}